AdvertReports
…
#create a list with the names of the csvs that contain the conversion data
files <- list.files( pattern = "csv", full.names = TRUE)
#merge the individual csv adding a column that contains the file name 
conversionevents<-files %>% 
  map(.f = ~read_csv(.x)) %>%
  set_names(nm = files) %>%     
  map_dfr(identity, .id = "Name")
#replace the Name column with Date
conversionevents<-conversionevents%>%mutate(Name=str_extract(Name,"[0-9]{4}[-][0-9]{2}[-][0-9]{2}+"))%>%rename(Date=Name)%>%mutate(Date=as.Date(Date))
conversionevents

## # A tibble: 121,878 x 3
##    Date       ID                                CAMPAIGNID                 
##    <date>     <chr>                             <chr>                      
##  1 2019-03-01 5f6e57a887303a5f568459820e87904b… 39060730d62be825ebb5997111…
##  2 2019-03-01 c4c6e95e34c3bfe9d8b9628dfcc8a244… 39060730d62be825ebb5997111…
##  3 2019-03-01 b645996f754e084f5da14be7197d3c1d… b5b037a78522671b89a2c1b21d…
##  4 2019-03-01 e3527595bb5f0c3deef9a2a7a6f7b88e… 39060730d62be825ebb5997111…
##  5 2019-03-01 46b3d889fa4fc90dd56b64f323575110… b5b037a78522671b89a2c1b21d…
##  6 2019-03-01 6bda4fea92cf9310500684a702a7bb06… db06e8e094e3b4b5943bbb71aa…
##  7 2019-03-01 4bbf1c577a6ae45c5fb33ede9b18c8a7… 39060730d62be825ebb5997111…
##  8 2019-03-01 9a1519e497fe9aabe041891f47247dfd… 396ac2a33748bb784077f41123…
##  9 2019-03-01 8e15e2b783986d0054b58fa1e1242e06… 1395ad342f7331f6ae81badb2e…
## 10 2019-03-01 99f8175f367caeb7138fe348a4fa98de… 2b7203e1d1b1c3dd4615bdd0ff…
## # … with 121,868 more rows

Removing duplicates from the conversionevents dataframe and saving the unique values in a new dataframe named conversionevents_unique. A total of 2389 duplicate values have been removed.

conversionevents_unique<-distinct(conversionevents)
conversionevents_unique

## # A tibble: 119,489 x 3
##    Date       ID                                CAMPAIGNID                 
##    <date>     <chr>                             <chr>                      
##  1 2019-03-01 5f6e57a887303a5f568459820e87904b… 39060730d62be825ebb5997111…
##  2 2019-03-01 c4c6e95e34c3bfe9d8b9628dfcc8a244… 39060730d62be825ebb5997111…
##  3 2019-03-01 b645996f754e084f5da14be7197d3c1d… b5b037a78522671b89a2c1b21d…
##  4 2019-03-01 e3527595bb5f0c3deef9a2a7a6f7b88e… 39060730d62be825ebb5997111…
##  5 2019-03-01 46b3d889fa4fc90dd56b64f323575110… b5b037a78522671b89a2c1b21d…
##  6 2019-03-01 6bda4fea92cf9310500684a702a7bb06… db06e8e094e3b4b5943bbb71aa…
##  7 2019-03-01 4bbf1c577a6ae45c5fb33ede9b18c8a7… 39060730d62be825ebb5997111…
##  8 2019-03-01 9a1519e497fe9aabe041891f47247dfd… 396ac2a33748bb784077f41123…
##  9 2019-03-01 8e15e2b783986d0054b58fa1e1242e06… 1395ad342f7331f6ae81badb2e…
## 10 2019-03-01 99f8175f367caeb7138fe348a4fa98de… 2b7203e1d1b1c3dd4615bdd0ff…
## # … with 119,479 more rows
…
summary(rejections)

##       ID           
##  Length:4779       
##  Class :character  
##  Mode  :character

excluding IDlisted in rejections from conversionsevents_unique

conversionevents_unique<-conversionevents_unique %>% anti_join(rejections)
conversionevents_unique

## # A tibble: 114,710 x 3
##    Date       ID                                CAMPAIGNID                 
##    <date>     <chr>                             <chr>                      
##  1 2019-03-01 5f6e57a887303a5f568459820e87904b… 39060730d62be825ebb5997111…
##  2 2019-03-01 c4c6e95e34c3bfe9d8b9628dfcc8a244… 39060730d62be825ebb5997111…
##  3 2019-03-01 b645996f754e084f5da14be7197d3c1d… b5b037a78522671b89a2c1b21d…
##  4 2019-03-01 e3527595bb5f0c3deef9a2a7a6f7b88e… 39060730d62be825ebb5997111…
##  5 2019-03-01 6bda4fea92cf9310500684a702a7bb06… db06e8e094e3b4b5943bbb71aa…
##  6 2019-03-01 4bbf1c577a6ae45c5fb33ede9b18c8a7… 39060730d62be825ebb5997111…
##  7 2019-03-01 9a1519e497fe9aabe041891f47247dfd… 396ac2a33748bb784077f41123…
##  8 2019-03-01 8e15e2b783986d0054b58fa1e1242e06… 1395ad342f7331f6ae81badb2e…
##  9 2019-03-01 99f8175f367caeb7138fe348a4fa98de… 2b7203e1d1b1c3dd4615bdd0ff…
## 10 2019-03-01 3a9b8971c8a7294c666485cf6230aab2… b5b037a78522671b89a2c1b21d…
## # … with 114,700 more rows
…
Joining the conversionevents_unique dataframe with the campaigninfo dataframe in a dataframe named master

master<-full_join(conversionevents_unique,campaingnsinfo,by="CAMPAIGNID")
master

## # A tibble: 114,710 x 5
##    Date       ID                  CAMPAIGNID         PAYOUT ACCOUNT_MANAGER
##    <date>     <chr>               <chr>               <dbl> <chr>          
##  1 2019-03-01 5f6e57a887303a5f56… 39060730d62be825e…   9    Felix Butterwo…
##  2 2019-03-01 c4c6e95e34c3bfe9d8… 39060730d62be825e…   9    Felix Butterwo…
##  3 2019-03-01 b645996f754e084f5d… b5b037a78522671b8…   7.6  Erica Archer   
##  4 2019-03-01 e3527595bb5f0c3dee… 39060730d62be825e…   9    Felix Butterwo…
##  5 2019-03-01 6bda4fea92cf931050… db06e8e094e3b4b59…   0.9  Erica Archer   
##  6 2019-03-01 4bbf1c577a6ae45c5f… 39060730d62be825e…   9    Felix Butterwo…
##  7 2019-03-01 9a1519e497fe9aabe0… 396ac2a33748bb784…   3.76 John Smith     
##  8 2019-03-01 8e15e2b783986d0054… 1395ad342f7331f6a…   8.1  Felix Butterwo…
##  9 2019-03-01 99f8175f367caeb713… 2b7203e1d1b1c3dd4…  10    John Smith     
## 10 2019-03-01 3a9b8971c8a7294c66… b5b037a78522671b8…   7.6  Erica Archer   
## # … with 114,700 more rows
…
db06e8e094e3b4b5943bbb71aabe9cdc
Erica Archer
3328
0.90
2995.20

calculating daily spend per campaign

master3<-master%>% group_by(CAMPAIGNID,Date,PAYOUT) %>%summarise( CAMPAIGN_CONVERSION = n())%>% mutate(TOTALSPEND=(PAYOUT*CAMPAIGN_CONVERSION))
master3

## # A tibble: 75 x 5
## # Groups:   CAMPAIGNID, Date [75]
##    CAMPAIGNID                Date       PAYOUT CAMPAIGN_CONVERS… TOTALSPEND
##    <chr>                     <date>      <dbl>             <int>      <dbl>
##  1 1395ad342f7331f6ae81badb… 2019-03-01    8.1               211      1709.
##  2 1395ad342f7331f6ae81badb… 2019-03-02    8.1               482      3904.
##  3 1395ad342f7331f6ae81badb… 2019-03-03    8.1               568      4601.
##  4 1395ad342f7331f6ae81badb… 2019-03-04    8.1               289      2341.
##  5 1395ad342f7331f6ae81badb… 2019-03-05    8.1               148      1199.
##  6 1395ad342f7331f6ae81badb… 2019-03-06    8.1                18       146.
##  7 1395ad342f7331f6ae81badb… 2019-03-07    8.1               196      1588.
##  8 2b7203e1d1b1c3dd4615bdd0… 2019-03-01   10                 970      9700 
##  9 2b7203e1d1b1c3dd4615bdd0… 2019-03-02   10                1182     11820 
## 10 2b7203e1d1b1c3dd4615bdd0… 2019-03-03   10                8998     89980 
## # … with 65 more rows

calculating daily percentage differences per campaign

library(scales)
dailydiff<-master3%>%ungroup()%>%select(Date,CAMPAIGNID,TOTALSPEND)%>%group_by(CAMPAIGNID,Date)%>%summarise(TOTALSPEND = sum(TOTALSPEND))%>% mutate(DIFF=TOTALSPEND-lag(TOTALSPEND, n=1),PERCENT_DIFF = percent(DIFF/lag(TOTALSPEND,n=1)))
dailydiff

## # A tibble: 75 x 5
## # Groups:   CAMPAIGNID [11]
##    CAMPAIGNID                     Date       TOTALSPEND   DIFF PERCENT_DIFF
##    <chr>                          <date>          <dbl>  <dbl> <chr>       
##  1 1395ad342f7331f6ae81badb2eeb4… 2019-03-01      1709.    NA  NA%         
##  2 1395ad342f7331f6ae81badb2eeb4… 2019-03-02      3904.  2195. 130%        
##  3 1395ad342f7331f6ae81badb2eeb4… 2019-03-03      4601.   697. 20%         
##  4 1395ad342f7331f6ae81badb2eeb4… 2019-03-04      2341. -2260. -50%        
##  5 1395ad342f7331f6ae81badb2eeb4… 2019-03-05      1199. -1142. -50%        
##  6 1395ad342f7331f6ae81badb2eeb4… 2019-03-06       146. -1053  -90%        
##  7 1395ad342f7331f6ae81badb2eeb4… 2019-03-07      1588.  1442. 990%        
##  8 2b7203e1d1b1c3dd4615bdd0ffe60… 2019-03-01      9700     NA  NA%         
##  9 2b7203e1d1b1c3dd4615bdd0ffe60… 2019-03-02     11820   2120  22%         
## 10 2b7203e1d1b1c3dd4615bdd0ffe60… 2019-03-03     89980  78160  661%        
## # … with 65 more rows

Selecting the column needed for Task2 Report

Task2<-dailydiff%>%ungroup()
Task2

## # A tibble: 75 x 5
##    CAMPAIGNID                     Date       TOTALSPEND   DIFF PERCENT_DIFF
##    <chr>                          <date>          <dbl>  <dbl> <chr>       
##  1 1395ad342f7331f6ae81badb2eeb4… 2019-03-01      1709.    NA  NA%         
##  2 1395ad342f7331f6ae81badb2eeb4… 2019-03-02      3904.  2195. 130%        
##  3 1395ad342f7331f6ae81badb2eeb4… 2019-03-03      4601.   697. 20%         
##  4 1395ad342f7331f6ae81badb2eeb4… 2019-03-04      2341. -2260. -50%        
##  5 1395ad342f7331f6ae81badb2eeb4… 2019-03-05      1199. -1142. -50%        
##  6 1395ad342f7331f6ae81badb2eeb4… 2019-03-06       146. -1053  -90%        
##  7 1395ad342f7331f6ae81badb2eeb4… 2019-03-07      1588.  1442. 990%        
##  8 2b7203e1d1b1c3dd4615bdd0ffe60… 2019-03-01      9700     NA  NA%         
##  9 2b7203e1d1b1c3dd4615bdd0ffe60… 2019-03-02     11820   2120  22%         
## 10 2b7203e1d1b1c3dd4615bdd0ffe60… 2019-03-03     89980  78160  661%        
## # … with 65 more rows
…
